1 10 20
100 200 125
200 100 125
201 210 89
900 1000 174
200 300 128
300 400 144
400 500 142
500 600 137
600 700 145
700 800 171
1000 2000 182
2000 2020 144
2000 2100 157
5000 5555 205
1234 1300 177
1337 1500 172
3000 3100 186
6500 6666 244
999900 999999 259
999999 999999 259
1 1 1
1 2 2
7000 7100 195
7100 7200 195
7400 7500 239
10000 10101 224
20000 20202 243
30000 30303 272
33333 33400 236
34567 35000 280
35000 36000 324
36000 37000 249
37000 38000 306
38000 39000 244
39000 40000 306
41234 42000 257
42069 43000 288
44444 45678 314
45454 45555 208
50000 51000 278
51000 52000 309
52000 53000 340
54000 55000 260
55555 56000 260
56789 57000 291
420 421 41
9999 10000 92
2048 4096 238
4096 8192 262
8192 16384 276
499999 500000 258
500001 500100 258
500200 500300 364
501234 502345 426
541234 542000 364
22222 22322 238
23423 23444 251
87654 88888 333
8888 10000 260
41234 43000 288
100000 100100 310
100100 100200 341
100200 100300 235
100400 100500 235
101010 101111 297
123456 125667 318
234566 234670 275
345555 347887 441
654321 654444 292
696969 696999 199
666 999 179
6666 9999 260
700700 702000 411
777777 778888 437
770000 771000 349
787878 787879 101
797979 797989 194
800000 800100 375
800200 800300 269
800400 800500 282
808080 809000 331
888888 888889 119
600000 600100 372
606060 606080 235
666666 666999 323
16 256 128
64 128 119
32 36 27
47 58 113
193 9485 262
1 50 112
600585 600600 235
1200 4000 238
456 1600 182
16785 20000 279
645867 645900 279
500846 501000 289
360 720 171
70000 70100 281
15647 16000 253
